<!-- Thanks to <https://github.com/leemunroe/responsive-html-email-template> for the test case -->
<!DOCTYPE html PUBLIC "-//W3C//DTD XHTML 1.0 Transitional//EN" "http://www.w3.org/TR/xhtml1/DTD/xhtml1-transitional.dtd">
<html xmlns="http://www.w3.org/1999/xhtml" style="margin: 0; padding: 0; font-family: 'Helvetica Neue', 'Helvetica', Helvetica, Arial, sans-serif; font-size: 100%; line-height: 1.6;">
<head>
<meta name="viewport" content="width=device-width">
<meta http-equiv="Content-Type" content="text/html; charset=UTF-8">
<title>Really Simple HTML Email Template</title>
</head>

<body bgcolor="#f6f6f6" style="margin: 0; padding: 0; font-family: 'Helvetica Neue', 'Helvetica', Helvetica, Arial, sans-serif; font-size: 100%; line-height: 1.6; -webkit-font-smoothing: antialiased; -webkit-text-size-adjust: none; height: 100%; width: 100%;">

<!-- body -->
<table class="body-wrap" bgcolor="#f6f6f6" style="margin: 0; font-family: 'Helvetica Neue', 'Helvetica', Helvetica, Arial, sans-serif; font-size: 100%; line-height: 1.6; padding: 20px; width: 100%;">
	<tr style="margin: 0; padding: 0; font-family: 'Helvetica Neue', 'Helvetica', Helvetica, Arial, sans-serif; font-size: 100%; line-height: 1.6;">
		<td style="margin: 0; padding: 0; font-family: 'Helvetica Neue', 'Helvetica', Helvetica, Arial, sans-serif; font-size: 100%; line-height: 1.6;"></td>
		<td class="container" bgcolor="#FFFFFF" style="font-family: 'Helvetica Neue', 'Helvetica', Helvetica, Arial, sans-serif; font-size: 100%; line-height: 1.6; padding: 20px; border: 1px solid #f0f0f0; margin: 0 auto; display: block; max-width: 600px; clear: both;">

			<!-- content -->
			<div class="content" style="padding: 0; font-family: 'Helvetica Neue', 'Helvetica', Helvetica, Arial, sans-serif; font-size: 100%; line-height: 1.6; margin: 0 auto; max-width: 600px; display: block;">
			<table style="margin: 0; padding: 0; font-family: 'Helvetica Neue', 'Helvetica', Helvetica, Arial, sans-serif; font-size: 100%; line-height: 1.6; width: 100%;">
				<tr style="margin: 0; padding: 0; font-family: 'Helvetica Neue', 'Helvetica', Helvetica, Arial, sans-serif; font-size: 100%; line-height: 1.6;">
					<td style="margin: 0; padding: 0; font-family: 'Helvetica Neue', 'Helvetica', Helvetica, Arial, sans-serif; font-size: 100%; line-height: 1.6;">
						<p style="margin: 0; padding: 0; font-family: 'Helvetica Neue', 'Helvetica', Helvetica, Arial, sans-serif; line-height: 1.6; font-size: 14px; margin-bottom: 10px; font-weight: normal;">Hi there,</p>
						<p style="margin: 0; padding: 0; font-family: 'Helvetica Neue', 'Helvetica', Helvetica, Arial, sans-serif; line-height: 1.6; font-size: 14px; margin-bottom: 10px; font-weight: normal;">Sometimes all you want is to send a simple HTML email with a basic design.</p>
						<h1 style="padding: 0; margin: 40px 0 10px; font-family: 'Helvetica Neue', Helvetica, Arial, 'Lucida Grande', sans-serif; font-size: 36px; line-height: 1.2; color: #000; font-weight: 200;">Really simple HTML email template</h1>
						<p style="margin: 0; padding: 0; font-family: 'Helvetica Neue', 'Helvetica', Helvetica, Arial, sans-serif; line-height: 1.6; font-size: 14px; margin-bottom: 10px; font-weight: normal;">This is a really simple email template. Its sole purpose is to get you to click the button below.</p>
						<h2 style="padding: 0; margin: 40px 0 10px; font-family: 'Helvetica Neue', Helvetica, Arial, 'Lucida Grande', sans-serif; font-size: 28px; line-height: 1.2; color: #000; font-weight: 200;">How do I use it?</h2>
						<p style="margin: 0; padding: 0; font-family: 'Helvetica Neue', 'Helvetica', Helvetica, Arial, sans-serif; line-height: 1.6; font-size: 14px; margin-bottom: 10px; font-weight: normal;">All the information you need is on GitHub.</p>
						<table style="margin: 0; padding: 0; font-family: 'Helvetica Neue', 'Helvetica', Helvetica, Arial, sans-serif; font-size: 100%; line-height: 1.6; width: 100%;">
							<tr style="margin: 0; padding: 0; font-family: 'Helvetica Neue', 'Helvetica', Helvetica, Arial, sans-serif; font-size: 100%; line-height: 1.6;">
								<td class="padding" style="margin: 0; font-family: 'Helvetica Neue', 'Helvetica', Helvetica, Arial, sans-serif; font-size: 100%; line-height: 1.6; padding: 10px 0;">
									<p style="margin: 0; padding: 0; font-family: 'Helvetica Neue', 'Helvetica', Helvetica, Arial, sans-serif; line-height: 1.6; font-size: 14px; margin-bottom: 10px; font-weight: normal;"><a href="https://github.com/leemunroe/html-email-template" class="btn-primary" style="margin: 0; font-family: 'Helvetica Neue', 'Helvetica', Helvetica, Arial, sans-serif; font-size: 100%; padding: 0; line-height: 2; color: #FFF; text-decoration: none; background-color: #348eda; border-radius: 25px; border-width: 10px 20px; font-weight: bold; margin-right: 10px; text-align: center; cursor: pointer; display: inline-block; border: solid #348eda;">View the source and instructions on GitHub</a></p>
								</td>
							</tr>
						</table>
						<p style="margin: 0; padding: 0; font-family: 'Helvetica Neue', 'Helvetica', Helvetica, Arial, sans-serif; line-height: 1.6; font-size: 14px; margin-bottom: 10px; font-weight: normal;">Feel free to use, copy, modify this email template as you wish.</p>
						<p style="margin: 0; padding: 0; font-family: 'Helvetica Neue', 'Helvetica', Helvetica, Arial, sans-serif; line-height: 1.6; font-size: 14px; margin-bottom: 10px; font-weight: normal;">Thanks, have a lovely day.</p>
						<p style="margin: 0; padding: 0; font-family: 'Helvetica Neue', 'Helvetica', Helvetica, Arial, sans-serif; line-height: 1.6; font-size: 14px; margin-bottom: 10px; font-weight: normal;"><a href="http://twitter.com/leemunroe" style="margin: 0; padding: 0; font-family: 'Helvetica Neue', 'Helvetica', Helvetica, Arial, sans-serif; font-size: 100%; line-height: 1.6; color: #348eda;">Follow @leemunroe on Twitter</a></p>
					</td>
				</tr>
			</table>
			</div>
			<!-- /content -->

		</td>
		<td style="margin: 0; padding: 0; font-family: 'Helvetica Neue', 'Helvetica', Helvetica, Arial, sans-serif; font-size: 100%; line-height: 1.6;"></td>
	</tr>
</table>
<!-- /body -->

<!-- footer -->
<table class="footer-wrap" style="margin: 0; padding: 0; font-family: 'Helvetica Neue', 'Helvetica', Helvetica, Arial, sans-serif; font-size: 100%; line-height: 1.6; width: 100%; clear: both;">
	<tr style="margin: 0; padding: 0; font-family: 'Helvetica Neue', 'Helvetica', Helvetica, Arial, sans-serif; font-size: 100%; line-height: 1.6;">
		<td style="margin: 0; padding: 0; font-family: 'Helvetica Neue', 'Helvetica', Helvetica, Arial, sans-serif; font-size: 100%; line-height: 1.6;"></td>
		<td class="container" style="padding: 0; font-family: 'Helvetica Neue', 'Helvetica', Helvetica, Arial, sans-serif; font-size: 100%; line-height: 1.6; margin: 0 auto; display: block; max-width: 600px; clear: both;">

			<!-- content -->
			<div class="content" style="padding: 0; font-family: 'Helvetica Neue', 'Helvetica', Helvetica, Arial, sans-serif; font-size: 100%; line-height: 1.6; margin: 0 auto; max-width: 600px; display: block;">
				<table style="margin: 0; padding: 0; font-family: 'Helvetica Neue', 'Helvetica', Helvetica, Arial, sans-serif; font-size: 100%; line-height: 1.6; width: 100%;">
					<tr style="margin: 0; padding: 0; font-family: 'Helvetica Neue', 'Helvetica', Helvetica, Arial, sans-serif; font-size: 100%; line-height: 1.6;">
						<td align="center" style="margin: 0; padding: 0; font-family: 'Helvetica Neue', 'Helvetica', Helvetica, Arial, sans-serif; font-size: 100%; line-height: 1.6;">
							<p style="margin: 0; padding: 0; font-family: 'Helvetica Neue', 'Helvetica', Helvetica, Arial, sans-serif; line-height: 1.6; margin-bottom: 10px; font-weight: normal; font-size: 12px; color: #666;">Don't like these annoying emails? <a href="#" style="margin: 0; padding: 0; font-family: 'Helvetica Neue', 'Helvetica', Helvetica, Arial, sans-serif; font-size: 100%; line-height: 1.6; color: #999;"><unsubscribe style="margin: 0; padding: 0; font-family: 'Helvetica Neue', 'Helvetica', Helvetica, Arial, sans-serif; font-size: 100%; line-height: 1.6;">Unsubscribe</unsubscribe></a>.
							</p>
						</td>
					</tr>
				</table>
			</div>
			<!-- /content -->

		</td>
		<td style="margin: 0; padding: 0; font-family: 'Helvetica Neue', 'Helvetica', Helvetica, Arial, sans-serif; font-size: 100%; line-height: 1.6;"></td>
	</tr>
</table>
<!-- /footer -->

</body>
</html>
